{
  "type": "service_account",
  "project_id": "saif46d",
  "private_key_id": "3ae71ebae337bcdebae80204ccea63fd0e7ad764",
  "private_key": "-----BEGIN PRIVATE KEY-----\nMIIEugIBADANBgkqhkiG9w0BAQEFAASCBKQwggSgAgEAAoIBAQCRjKB7Wn5J9cqn\nIvf6lNQ9TESY3MSzZWzRelZDsuInjMauuwQ/AlC8/NwoYzSP3kthDbF13W7j97eq\n3hKu2i2naCYz1tAW9rk0QqyyCSUh3cMJN8TM+6wtzIxHCIYIxwJD4cxEN6Qmn6ra\n0CaCuTW8ODkq1gjyf3bpKp0anSkTtTFtq72KbMSrDs1UXhiS1LNlfrPGwbP32kM6\nI9SQ612COKNk9TUiWw5/YosLeF1lviMu3/Tmeo6yQ8NXz8RHTE94ZpHtin+NXsqf\n70VEAomfqGKL+d8skyRwQkNNEJk/OVFAH/XdBvKdGmnveuwX6JGa+S3W1nFkW7JN\n4h/jF0aRAgMBAAECgf9glNBpCkODEHbJMYsb3GZ5xoI+bUCZSlRLLMLRaYJofCHb\nEH5g0UiCH8h3hFz8mqWqYUvAyo8q9tYJrBL5tA1XaOTwwTqUAmQjKZsvCKJ7NoyV\nMUyGOPqn6XOsLxvB90ypfsvs+H8Uoh7d1AG5/OyLWUOWCTEmuS5Oytg1MNRxHmrF\nrhlrxm+A7YpWkTNOT7UflgHYWaTuOYoEJ4BSDXkAl9g3Hhm4VvUpjdVikxEDnZKJ\nj9JB/xpQVqoaEofqLAkt9CZFXXvg5u4P822/77A+r47tS2/QjzJKz07kNlPX6VRH\nk52FLGmMdwQM+m1/7YgH3gSCClPEo5p2IrRP7bkCgYEAxpqBWhweyjyj2nTz5veW\nvSxy1bWSNur355OsaLyiUBls9gJLS4c83XcFkCg4EHXKuecvbW2PmXVw8Xk3YYvU\nkt8OZ/UHcjEP0b9PW+IjH5jULC4Yfq7UDtP3auSCsPOwbLrLUqhLi9+a4gt0BL6h\n1tTmhAAvCQEvMP6lvBEO0qkCgYEAu5z0tQhlLQ9+qWH7793om7agTC5o9V/3UCxM\nEaLZqIvsHrLHk5NL4wr7mNY0IRnfUC8v5P0+DXJo/IgmyNmtr6L3mPYKfFJ/G5eG\n3xicQgG+eCCxK5TsFsaqw8LBMRyldCaIONE2UqBMAe72K8L7tcACY/OTgAjOIpgn\nOwWirakCgYBmp6givpQ/rpZ3LaqAgQt+XsJAqqiYEF3xakhcntw7ENlcU5U9xfp0\n8reCaveHsosGCnReWJo4FRc7CY/RsOhAvmEA5QtjP+7QWNWZRcsn4uQQrgblPFLK\nE1A5BUJ0WpGfsfG0mN7rvrmdC5R9e1fF5qf8JOgq/Fy7M3TRP/PseQKBgA22XRRW\nNr7iYQmURcu0Vmn7ISAwTC+TAgp0EmM/mdT91RYxTvD0VRmVFeqHzWuV7oJ30HJW\nKBDnidDbSqpnbpBlwt8FLKMFjJDBtHPd4p3Ybsls6kYbLl5Dyvtf4qrqQxWIM3Cj\nqerEGIoTox5zs94G2KXhiahT/Gz+3e8sbEVxAoGAdnOELbelzdoiVMPMQ5HD3zmA\nY8kJvwM0s/JHx0nuHy98x+YvmVunALNQYVS3BtooFz2Ai3Hs3837CSKDPXRhOF9p\n4KTIhuTRYlWs9kovHOzu/qN+/s1F54i8oRwbmh7x2gxHZ76S1aQiUrhjG5LAEyQ8\ncZMJwhfYvtdcgSnA+Yc=\n-----END PRIVATE KEY-----\n",
  "client_email": "mfc-iox0-2v6vag2cyvpz7w1c0jaoh@saif46d.iam.gserviceaccount.com",
  "client_id": "110190677599635321963",
  "auth_uri": "https://accounts.google.com/o/oauth2/auth",
  "token_uri": "https://oauth2.googleapis.com/token",
  "auth_provider_x509_cert_url": "https://www.googleapis.com/oauth2/v1/certs",
  "client_x509_cert_url": "https://www.googleapis.com/robot/v1/metadata/x509/mfc-iox0-2v6vag2cyvpz7w1c0jaoh%40saif46d.iam.gserviceaccount.com"
}
