{
  "type": "service_account",
  "project_id": "saif46d",
  "private_key_id": "4249663d449bed086957cf9c1327e34c9d35427a",
  "private_key": "-----BEGIN PRIVATE KEY-----\nMIIEvQIBADANBgkqhkiG9w0BAQEFAASCBKcwggSjAgEAAoIBAQCc+KhI729QUZxC\nKmn3Vhyy+QatIWzKak46/JT6sxx/HaVpjJpYDtjk6uY7RAOV5QenUluh7piEWyFa\n7aB6FQo5M6xS87uiudiYK+KNBSfHCFHrOO5IwzFekBI7O8dZK1aBbggUGsFYXIPx\nUQVF/cRV29luydlEwSfy5ZoW7O917i1lHnn0xhreiF/IgRENN23/EVM2MZODMdlf\n3g45De/nyyVk0DJtSnYQX00UqDns23FOI3OHMa93qC4yvDPGt4r5bc6NeNedlwQL\n5n2OMO4L5oJUGIQEn4iZUuwQ35adOFMwRSsobo04cv4m33N7tQtrCaZW7NeCijnk\nO1R1lc8jAgMBAAECggEABW5HVdN0dKeHxXSpAXxCnLqOGmCFEaSHglwjKpOwN7TZ\n3s+VHQwE2wUTF0sG6LrpmEaUK9BECWHYKWIxSPTM/r+kuNX8tuhavKEM3ISO8Y1L\nI3bVX6hJK/r5Q01ewnbQx/eVL5GuM/vRBzQemS/qom6elJbgZBP4T6hvIiRRmjEO\nepvpjYXlh1mkOpkjTKhymB8eaU1hwjAojO3n50GDxwK5vSx5dQIqEZLWpSkr/oN2\nwWdR4j59EFyiV7tf8bJTx5bOc+YwPA+lw0EtWxLq/JJCp1wXreMhY7wsygONV3AU\nKZ5yfekAfbRnblTmjsoCt4gQVRUP6GZSYp8698IlMQKBgQDMPPPwxNl6YDN8WvfE\naVXf/KZ7/BXUVZ3DG5HCks58BFZQcmzJqb5OkonklpSsHP7zI+3P1n1hmS9N+Fu1\nRdm2ZsewjboCNlZYG4JiuGWkCfbt+Rj5o3BKELbqkZIL7gGHIzVHVEtoDE34VqoG\ny2UIkbQ/MXbjfkROZGj+KT42mwKBgQDEwQR3/8a1LB4nkphq5il93hgt9TzA1HA2\netjhdKKxLnsuyP73PXtpwEEvUVGt3gNTAU6U29B+3SyKYRE/w/gPkE1TAdF4aNLy\nvcV4/el+3ARlc92qLQWBi+M8Es7j7OchqriUXwWhvUi6/MTCGizuVFWH/C71udIJ\nSjZ2S/IOGQKBgEQD1HUNCSPQ37R9EuAM+DU0jTji9V4V+QjdqIf0neD9DMWTpZju\n91pxQIyofPBoY5sTDwJU+sJC4lcD636NuXgd+EhammRcNhr3Zk97+xVK4DnV57RS\n8nUn5dJuEgX5B/c6CWcsskP/PQQD0HGc0JOu+ijFT0NpbFPy6mgh0f8bAoGBAKNx\n3G57Eezq61ngU7Fp5cnjt55l/MQLNfRr9MLFi2k4vafN3NAySNU+mmfeW8XdilFn\n4omSWQ8qWJfTruqTtvvm2fU8q3AlVCfGMcci1tdFmnlU2S1HHS3SsT/0N93rrM2w\n7oiCr0D+5u4+kIzWBcEuWacPfUsvxCVnevqmeDvxAoGAH6OR7bZ7vOrG99YEkPV/\ndGAOiwXRiQURy/oU/LEv+ng/vs/gZy6JzXdYPvJXxg/wDScvHRkrr9SSAmmhBsfX\nHHwqjF5utMA882P99C/ztyyUyN13u1vCnNdwRTVK7t8+w307XG3MJa0N8lZqoSYd\nNoQ8H9k87LDoBndSOjLpMrk=\n-----END PRIVATE KEY-----\n",
  "client_email": "mfc-uv4e8ha-fmo4tdb5j9yq8aznaf@saif46d.iam.gserviceaccount.com",
  "client_id": "117109531436316476664",
  "auth_uri": "https://accounts.google.com/o/oauth2/auth",
  "token_uri": "https://oauth2.googleapis.com/token",
  "auth_provider_x509_cert_url": "https://www.googleapis.com/oauth2/v1/certs",
  "client_x509_cert_url": "https://www.googleapis.com/robot/v1/metadata/x509/mfc-uv4e8ha-fmo4tdb5j9yq8aznaf%40saif46d.iam.gserviceaccount.com"
}
