{
  "type": "service_account",
  "project_id": "saif46d",
  "private_key_id": "a5334df163f968517900f0d3a8cb298dd355bbaa",
  "private_key": "-----BEGIN PRIVATE KEY-----\nMIIEvQIBADANBgkqhkiG9w0BAQEFAASCBKcwggSjAgEAAoIBAQDNh9By7xRn7gqh\n5rSD+h+n+z3SYgcEsutJsEeMq6/azJuvVxhoA6c7yCqK3BP10uW5w3kWBa2WEh+m\nhoYc7iDviTv+/Mc9J6VSz6h5y8XfbKJADj52LtiB7jNWAdm1UiqN4hqVfR8QpwsE\ngHUgH7qLIvl2Yoln2FVf7JlK9TiQpmI7uiOIk6htcCpg+YIeP5aaG95DNi2p+VyP\nY3ooTlsF9lKilYTdpSHX4hXCd8zkEGJoyBidiK0tV6W1KzVQx/YkHLCdyEp/ql80\nn6Z52Sfhqk82NN6LBNOefXrNQzYjOdfG3OBRHAqMUE5bul287UDsjBVbFszqI2Gy\nzPy33ovlAgMBAAECggEAI9VD8GXiZuRHkkaIvmHDVyQkeSOCGb2f6+8B6nKcbEcz\n9XP321qXs4KIeEE6caddSe/ckoxW4U0zm3LkuvKBZ4HDpgcoLW9WEYQG2YU/cF6e\nQxC4rx4nvS9sX9hevpAevzHmdJ2l5t9YumYzBXDCszNbztoLHsHG0LyNVVY/kGhB\ntzo2nbhaO2E2DUIGMZdGKPaawoQsmBAIcPeqk4CxdrWTXb6OzGpigiivrJ1t3bBA\nuYtWqJiDGCnEU3PT2XQxNnE1WabCO6B1aykviL8ozIuyHMBkYtbFk5ILiZrH/EF1\nUvzXSYB2+sjmjBV3CgNc/kCkDUpSSrB62MekTG6fgQKBgQDu8Rd2AcCDOzaHwRXt\nA+lYjfgE011EjnwDwcLdYBYF387etkuQ2G9/6vav6MQkMfL1GG3+vu7n9sLavHNY\nPlPxWIxnMVFDIX2C+X+670XtznzNF7jP6RtXe5KJo6vIMdy/fKITa5rdveP3FePK\nLZxuNrRXXpnjFtvhIPn+kHRRsQKBgQDcNBj63s9h4ALYYtsgKD1sVLcZ+627zJCm\nFAWI8yobLZ02R5GXpRw0WkYv0zlzeyzVGTvwd2vvxIUwIBpTs1IJqk4bYmzQjncK\n14sLoHjBGCP+aYe6I0wxNM4xpusN5D8r0TGnKKK6G/39F8XtPIrf2SlKJ1ziL1jD\ntjLzqrAWdQKBgAY0kK1p4jwGP6ZK52zeWyMHnNdTPerX4HSghZUGN8wzQcYa6d97\nH3os+fcbjmx6N5sR5VlmUAIKMIlJt50lET0FVbAgYcHijsXmAOEz8Zb5c9hHs28C\n2Mju1qFodL+gO+FlNThX5Q+5LMBv+xh3Esbx+MEEHe792vv/xT5NNhghAoGAUb7B\nWzglknb/d2bTY8+sZa/ZPTsSFrptJEogd+OVSPuY9hKBeOMhYkn07kIifL1IOl+g\nwbcDicHRk7kHLPVPyii/0CisrouEo7C6fHl4+m3ExuhUK4R4/3dT6FjHv6Nw1ApX\nvW83YZGMq00M+/HSuCC81DtintDmydi0d4Jw1hUCgYEA5JsHI+Sp3D2Km91XVPb2\n0rTSw0x4zAoTv9juxX4T4CtuexEz/NljYOOZx2W8rcb/GOdoMBMm9Mk8enmBEe9F\nH5l2nOui8VNKQjhCe70pJdgk1WPsjzU31xPjb3A1NxAoFrTzBiMMmpdd2wOJQpGC\nB13yOFNg2qijfTrSWJ805kM=\n-----END PRIVATE KEY-----\n",
  "client_email": "mfc-icux-cxg0nh9xkm2x-juxx7nvs@saif46d.iam.gserviceaccount.com",
  "client_id": "105134991790112191950",
  "auth_uri": "https://accounts.google.com/o/oauth2/auth",
  "token_uri": "https://oauth2.googleapis.com/token",
  "auth_provider_x509_cert_url": "https://www.googleapis.com/oauth2/v1/certs",
  "client_x509_cert_url": "https://www.googleapis.com/robot/v1/metadata/x509/mfc-icux-cxg0nh9xkm2x-juxx7nvs%40saif46d.iam.gserviceaccount.com"
}
