{
  "type": "service_account",
  "project_id": "saif46d",
  "private_key_id": "d456e6d52f5987e7953805ca5abd5cba5812a407",
  "private_key": "-----BEGIN PRIVATE KEY-----\nMIIEvAIBADANBgkqhkiG9w0BAQEFAASCBKYwggSiAgEAAoIBAQCpeAfnGkc5lotT\nUt8DhwuH8cKiLE78shC1GjUe210ErQZEPZBEFc5W9TX5GJp2m9sns8gedESn3k8A\nfh2DsR/d2XvAO5hLLOeokg3nIuJTq9EB9q2Fm8nTYPPBfPyxC0imZ4whLN+FyvZ4\nm6HADbxqXwjSE7fB66yOQqmXYYKrgTEsfkUK3FH4/82+aQcWbwDfueiRiINGzdrl\nv6vfiqN54wUV9E72hafD1tYylyhejUvDOBwBjJlvBiMNJuFEXWc9XYAvnoh0rAQo\nUK4sGDEUCNpfjgg7rx+FjdcF3O5aTVVgktII4BKGzp0zGDic/pfp1WMKJPNhVsOU\neK/KXlNJAgMBAAECggEAAdulj3yPLJaaYLtxJpfwxni8m+GFJePQv76a0BwIQG0c\nQUmopcf5IwZDmRS9KiG9H8y88UahJzYy/Ma6h3GeaWTI4aV5bh3B968eD55X9V8r\nfYGwCvYOV8vAFb2aot87UojfnnsE2OvEygKVF72eDPoHYPdk8polNJnkHyd6e+Vv\n+rGg8ujI6SkspPj4WL7FAXe9/CDBaVClqPsaUNzCDfjmIA6IJkHS0zADR5bLLXdu\njFi3dLMJ7EbTRA47xOacjuDLYSukACHaP4trEYTjsImC6FqLTdK7wUfUbNpNRzu+\n8hy8zEG80a2pUHnS7X30V8fedWIeIxrYLv9OxaZpkQKBgQDl1FejN5pEodY67ILJ\nrnU1UAZQADKiJzAU/aCy3QrEv9qeOtLdCMz6lWr2rY92fmL82MsGe++5HSPxOvzN\nsM4u8EMxiYe05PgKRvmAkkezPA78EYxc5f5R+wtjhx/JLPRPds2rvQlU3fBw//hn\ndtBII3KWEG9bd3SSRlx/xmZ/dQKBgQC8xCS5N14TgGSzmMbF4Vwq/tEgDbiMUbrg\n7i1w1goJbKaGLI3NINDOjKynC8PP6iCzQ4Wi68reso+L6z+z5CXmsJ5UZVKfHZL+\njp1Ipma4EloyECPklTcJFjPvfnIki5otNMECCrxzUbHti9dUhelAPlykQIG6xG3f\namvFvRG+BQKBgEwRQsxPq+yJT/mCrCsKZdq2WNCDsD6BD+XyqAxrIpRKF5aFS6NC\ntW0+pP9uJGyImkSrkE7eGFLBdVLzPhbqLOPWO7camOLjYcEtColmYPrOpvsA598b\ndFg36eYQJBIWoennHV15HKyNJHaSEepUpc0qhlNqryCr4dZEGXtk9Cm9AoGAFGml\niv3ox3UX7q/ztsxS+jdKCAxTy6C+87nt4gjTVwePzmyc/PSyf9OIjBvileY8mQYR\nOngDHSf0C+5pmhtu2c55oKjAUYKSNcLYUVXlP7yEUmuaZgqYw/vJq/lhgIA0MPVG\ndeERVescsZJwu6wreA4GWKC9JqQ9OW65rs1uUL0CgYBgUIY2DMqQMVLZIZB5LgE3\nolTdgWpIb3K1sQEH2cRLJ4mpks6EqmcP/6LB4bSxRTr4agCGtXdH6VZwbsmFBJCA\niawTE+GYWWhhozuR+xRSco2dmZyGsxHi/p86LRnMH7KZr9uJ6QhHF3j4ypmRTx2U\nRoF8ihrpRfW9vxXug9GS3g==\n-----END PRIVATE KEY-----\n",
  "client_email": "mfc-vtt4s5hk-6a0nww7w6icvnidrs@saif46d.iam.gserviceaccount.com",
  "client_id": "111682929598533009539",
  "auth_uri": "https://accounts.google.com/o/oauth2/auth",
  "token_uri": "https://oauth2.googleapis.com/token",
  "auth_provider_x509_cert_url": "https://www.googleapis.com/oauth2/v1/certs",
  "client_x509_cert_url": "https://www.googleapis.com/robot/v1/metadata/x509/mfc-vtt4s5hk-6a0nww7w6icvnidrs%40saif46d.iam.gserviceaccount.com"
}
