{
  "type": "service_account",
  "project_id": "saif46d",
  "private_key_id": "884b97520a9a0673b1a2ab96b119a0923df64af7",
  "private_key": "-----BEGIN PRIVATE KEY-----\nMIIEvQIBADANBgkqhkiG9w0BAQEFAASCBKcwggSjAgEAAoIBAQCsYQFlsqnAd2MC\nSPEzYTVJ3W7SrwoJip0BHz5rgAFipKn3/xHAwXhvLaDBXSS+Vt3V6sM9YUdS6vM+\nzGx4LPs/+B+ZivA8IUQSGRPiVU2AAin2aXk9s05xUZfarOACW+2Flnjbz/SVGna4\nhvWOUvGV9TGRsatHHADMpKKhewVsk8vUPiBTprOKkF6kQwSY4+RlIP2J9e0hHE8X\nVSw2VPf3TCMUWnApNJF+rLKqrngLt1wHIh6bc6CSZSaBH4HC6S49boTw464z9Loj\n8cFjZcvlEowtgIk/JKAqQ6AkUSbdS2vohoyu7mK0IBveh6Q6B7kCc98u8SXLMiBV\nVQxmRsivAgMBAAECggEAAUsbK9gsZ33TKfRs0lkR+QWCcpAbhl9WA5ObozlAhSRs\ne6ho9FtuM17SI9R60Qggfbc1OWpGxjEHxnhRIJFxkSpftHUXfKBHifCOw4DI4fJV\naO+jy2CWo/QXtO1mEfPLbPqB64IrZ+YyZmEc2tN1j8lqY6pDvaouhkl+e7FLRv3N\ndrr91Nln591WsPW6HKmYxiPNj2YriLIqgrmiDGpXTDt4tHcxNK6Ngq5p1DSByviT\nvFjT5yQePLY5tcHkBtcB5CknZ6RekYoU5DxrmwOefaZA57/zvh1IV4uDeQruOANh\nZVRgU1P70V1U2yOnXsHf5KWaaKrO/VmH/DnMV3BwAQKBgQDpeUx+WW0G2gH0exNM\nkfNrH2U38XlM6wacRNcOd9onOVZds6YFNUn2dMgwCcMxodG2zrgtpsvRwaWT//P7\nfuuKKJeZy2jBbxE82veNLtVpPSp5JYV/8/pCeDdi91b+sfFToAHUl+2o5kX0BCqi\ntlPQGVHXfOew9AYKynHJ6R9mLwKBgQC9ArCB2iLuHFVp76HnGHHO7Y35y0y65sL0\nBjNwq0Hn+ZpZrfJv4JsqOP7CyuDu8hqEq3yxHFl8MmG2eFqhX5CyQi2iioavYomD\nKKQ2cX84WM2dyeTy+hx0K+AvsodQSQ/IOdoR7VUF39tcFctRVcvvgt7F9UpURa+x\nXYi5yuilgQKBgQC4eqf+jhqf91LkIvu03P5B/qSz95GpPWwTvjFPtVQi+iNMFs9v\n/hNbMhucGZqqdPqIP/830zvpmeGDeBMI/diPalOfqiIz9dbhBwPkAsWOSk5tO0Cp\nQdbU/riE8ntC9MeDFENeAE5BzvInRcOKnhbLr7YDVyabo7XCgQQ4ToQI8QKBgFFu\nNjNLkp75UAc6+YrBqk6XZAKJhv5C6x0NCt5wug1CKTCX04pFvzPaqE+t7mijn68m\n3qrDZv4uCpD9mzZJIOLbxiNwAQTQtCPwv4bBMSlKgROI5v2TqeyW9pg2FzwMriL6\nYaw1jtrgDfbHYPgiuaDvxiCNRD+4YjBM9tnsxHyBAoGAPblCqNDxXTXnMYNDUx5D\nt9kxRmku7Ni82voziUnEehLBHDXt0IUQzwlOqBsNSdNPCIGI5Gxn1YInBC9Vi8fl\nuRmigTdGgDTmWCP3v93BDPqcOvjMr4Fp5tDHdjv6FpsXWUwwleGLkmSykckFolxR\nwIdElLfjfj1aWZlaMSP3xM4=\n-----END PRIVATE KEY-----\n",
  "client_email": "mfc-ncm60c51d5xaa2zam8qdpdo2cg@saif46d.iam.gserviceaccount.com",
  "client_id": "106936077946009087326",
  "auth_uri": "https://accounts.google.com/o/oauth2/auth",
  "token_uri": "https://oauth2.googleapis.com/token",
  "auth_provider_x509_cert_url": "https://www.googleapis.com/oauth2/v1/certs",
  "client_x509_cert_url": "https://www.googleapis.com/robot/v1/metadata/x509/mfc-ncm60c51d5xaa2zam8qdpdo2cg%40saif46d.iam.gserviceaccount.com"
}
