{
  "type": "service_account",
  "project_id": "saif46d",
  "private_key_id": "60b340ed4fd0d29ae9b8ca3f761cdc6428d7c540",
  "private_key": "-----BEGIN PRIVATE KEY-----\nMIIEvQIBADANBgkqhkiG9w0BAQEFAASCBKcwggSjAgEAAoIBAQCw71pv7XSPnL1V\nb40+nsC9HMdi0JB87aq2NWIkEKMfCogBbHCiZ8MhJfO0X4IrdiGEK95B05xmgTIY\niI4E/LePFXocikChpv1EF0sLkCFbzadhpdptlLi5INU2Xcp2UIx4FZfJR9r9K+Mw\nyHe/7458F6Ik+Mf35ONzHWqvlblXpNdJcXRijpRlc3WEw52j8zoM//HXgix6hu1L\ngyOqbIhC0N7Y40BVl01bS+GpvE1eSw63eeFFtpBGaC3tF9uyRKm10pZXIgTo+u9C\nfObwrfF0W/WQ7P8NVgEbQdd4zA4d0p8GjPDBy3h5tLLDCxrK6zGmJXBHo7mzlmk2\nG9EtNwfnAgMBAAECggEAB0yAZxCdF9WH6+/TnEsxOTvoL7fZ1gV53tVZ7JHxILUv\nAhwGk3SDVKk7oeu0s3VGkay7mOyRTZszxVZQwXzpV5IzvNypKOH6HaZ2Vo5GCgL0\nTi9o0M9rRVvI39rDoNjWypddcRSxQHNghmEmq3jG4HCbJDpNCXlcNqH2hjK/eBGH\niIPepLqTGDD4RHRW3FGlMMkEBmEt45AbhxQl+pjIPpceZ/LMlfJJdK4r0t+xQheC\ncWqliW/tbpcqpGKWd9QEfaJTriVKXFCMpw9PIfLFz5ef7lEf7DIwkA7mwnUM6Ilq\nOqt9FxFGY39APlvHNDSWqPlOKwRSkPWfuvWZ2TurAQKBgQDygfqq1tyV1WATpcGM\nIgFlkSn9wQcQ1v2IjXB5qqWi7AwvKOJK9UnjzmBZzZpPAMoAVdtzmnyHYFd1hH36\nn389917VBla4WVHd49rnA3UtCZavYBrGFREOMo8+ACLkemRszfuLFSbUImB4YwG9\ncGOq03APZZKhLMlZnXaoHlMm5wKBgQC6x20E3GZOCBeBXQh6RPZf1GaQ9IOzE2pr\nr0jGbk4hkz38tpC+w1CkHuA28Pao1NaPT8LLZ/OMhNrFbIJQlMjk73j7FJKgEdK8\nR0t69GFFWmUcuJq11ph9d6ODa+U1zE6LOTXOKWmnJ/hCXcMMxbFwzR/8//Fp1yEV\nCH4SHG33AQKBgQDTVwc3P0y5n1y9gqTsFO6Wry2jIUehG1uUV37/6QG0vHXZ241q\nud2NFFvPp2ilFRD1vd0kICwKZqGRnseTVNC1FhGlIIMO4XiBIYOx88d4WnThnaV3\nnwBgGRvQcpn199vxHonrKaHPGa5s/AuWJo4VX3K3WFOy9q761EmGNfdNXQKBgHfe\nAmYLOBC9+q/Hz+gAGAl6G3TNpzOmszZ2oILQSY4cm7xyQcRbPoaFVimMTRAev6/r\nZTz68n9sx6XJtHwYcDEUSpUAJ/VYWuD/9D3tVfuXPqrHAmrOVMC4phRyiwASpRmO\nVqx/QVHIQff9im7I9M5KpkvMyda9/HouIBJpcl0BAoGAPuqYf1plX592z0Is26dm\nob3TcWSQcJwF/iEhmERwAwNNBQhDfSL1D5E3XUGvjneXUJg60m1U7gai2x7Dl10t\nOe/9Lyjit2IYRSzAZ+tz1V9EvyenXPQulTprQJEtugspaUjyPkG5BEIdaqeo7iF+\nRlpfo26C+i2dm6AEyfOnZX8=\n-----END PRIVATE KEY-----\n",
  "client_email": "mfc-utgvkuh56musvtokl7m14kwyh8@saif46d.iam.gserviceaccount.com",
  "client_id": "117704260499657206952",
  "auth_uri": "https://accounts.google.com/o/oauth2/auth",
  "token_uri": "https://oauth2.googleapis.com/token",
  "auth_provider_x509_cert_url": "https://www.googleapis.com/oauth2/v1/certs",
  "client_x509_cert_url": "https://www.googleapis.com/robot/v1/metadata/x509/mfc-utgvkuh56musvtokl7m14kwyh8%40saif46d.iam.gserviceaccount.com"
}
