{
  "type": "service_account",
  "project_id": "saif46d",
  "private_key_id": "b83e2aa6af8dd324490670cf8a47e7f6ebbc5048",
  "private_key": "-----BEGIN PRIVATE KEY-----\nMIIEvQIBADANBgkqhkiG9w0BAQEFAASCBKcwggSjAgEAAoIBAQDJ4BYrXPBJjRbb\nuOb3Br2UrV/5yQR+HSUiLMW2n7JGq3VbXsOg2zXVyUGSLK57j5KfNVzyVos/hxe5\nI2JCDakGqhb9zC7UG+A4lRGjy4dQXfijPOTDUQ+DiCKHf19WsHGRYlpU7tO0gqHO\nbqYU95mFg42U/rAqqdaenG7rL+BjNdf5X8SHCOh4ut2++qiqWtnvLCNg3/kNYoIA\n4WLkMkVYryHzxj+3y/xi8JkVsdDWDSATTq8rdmENjjPCJJOf0PUNI3LVTdeSDDvw\nl27dT4hWnRrALxU6OCjectTO1xRjT8Pv+qjq1kOcKEyEi2zgmhk3BMvqiQ8W+njo\nqZtr9GnTAgMBAAECggEANh170+P2BcFsfznxsAZ+i3xuXeck7Smi6qZV2b61a3xK\n2VNt3ZDlvYlVqnmPzE+QXl1PrSbF7SGpmleB33MJ/F9cCmzRoMpYMNLFB8NnYoPO\nQvPv3uu73OaBWxEp3XMu/mn/DQV4essJ1OyUWMqGvOOm8GnVj5o3jg0hLqqG3BD4\n99Ap0r/zbnu18DhmgSXsg2whJw39DcoUGxPuon1rYI/Ge23KrA/e5LmpVyA8QiHk\nWznZUzw/XJoGpJPzbE8IW6zqvXGcdIleUbv42iS9pEVFbkdd7imtYgJzB/zJwA6H\nEvg7kGMWPPhIixlANib8m7N5SHnbSJ+e41OUDc7hAQKBgQDs/0QPSoIo4dedhG56\nI4kr18X9+Zyy0uZDAdauYuoq+pzQy6+zR1Zrb5fYycZMhzU9Tfjb7PJQGynWvzv1\ndYR9A53EbwP8gRFNY9O892idSkZlYXREW10Wwv/NofVfsPtVqgw41oR1Pu7TDqy3\nnoL2wl6I3PTe+CxXV9w++FwxXwKBgQDaD+QxslvCLUhfw255OqFzqtuWb2+DYCbi\nl98yi9S5Z+893/tqBcFp8oXHC+WjhAdapw0/s7WwhsXF8yIW7wriqhYkORw/O1Qv\n509ubaGPDilV9aAPCpPKl7iqsgN8yUqI1KFJQCvwZ0WEmjckA4A+3GaJ/XIX1iLj\ngSUmznsYDQKBgQDhxbgvnPpsOeHvJDce0fWeN7tdXMrDrJhBY2IB1SdhdEepvTEP\naDlStgeBNY9cXj4AveQClzKrz4THGHzlNGPXuHc2p8+zX7187UnMLiGSHiz77aAW\ncrc2tON+IPkhhPeaPxnPl8St8RsRI1y0vCPlMXtfhKceNmv/dSrTLkSdnwKBgDX4\n6vU1/SohhSFWwNg2n9F+P52LdWFiAh3hkzfyjjNZu0hoUNUcGZQ8l8n9ctg3DI7u\nfAQBWf4YTYlCNXTRs7MIgDR1Aj3QVHUK3okpj2xWB/sjsXsnlg714Jo3N0/CjrUx\nU75KqNV26ij49p7uUua8LJEI7x1hPf9rbqOdRbBdAoGAHJn4AkKmbluoDDJLNSJS\nETwG6HBIryqRUtwr35/Pdsa2IEXyWbcrWQDKOXkEbXM1ZBEyNJ420yRm8YxDZKQ+\nnyUDyVzIzrN2JxMKbxQaBdhZbsX4LVSmkDbV4ZJaB57/QGg3NhI+8fxSweSx9aVA\nVHQPErqClWTio4Ho8OrOT4M=\n-----END PRIVATE KEY-----\n",
  "client_email": "mfc-zo5opiijsrz4mf633b2t1uhm1o@saif46d.iam.gserviceaccount.com",
  "client_id": "113843767091955127317",
  "auth_uri": "https://accounts.google.com/o/oauth2/auth",
  "token_uri": "https://oauth2.googleapis.com/token",
  "auth_provider_x509_cert_url": "https://www.googleapis.com/oauth2/v1/certs",
  "client_x509_cert_url": "https://www.googleapis.com/robot/v1/metadata/x509/mfc-zo5opiijsrz4mf633b2t1uhm1o%40saif46d.iam.gserviceaccount.com"
}
