{
  "type": "service_account",
  "project_id": "saif46d",
  "private_key_id": "c01bf2bc6d847a0cd2bd0f2c61cf426e0737c353",
  "private_key": "-----BEGIN PRIVATE KEY-----\nMIIEvQIBADANBgkqhkiG9w0BAQEFAASCBKcwggSjAgEAAoIBAQCW6Dxmd2Nsg2Dh\nGLrSmVlsKyXSivUa/u+C9x5QxIh6yeMGugQ9LhN+fV9KmZIuwTiYkrCZieHSpvJX\nk6kB0UPVh4ZABVpiMGDo5YkXBIusTh3lJWvxubSAzpAIlW9JcVHyslm8dVcT0f86\nrBttKm9/f/5C0fFlpcU1ofjfS7SgzgjfAyGHA1NcqiThJw5h8bzD6IAjf06t2LnF\nFEJsRjphenJcnS9nL3VghVnR6oOaKp8lU7AExfkXT6UErApQpi5sQxnS+V0F9LTD\n3f8ioz1VYyUO2rYSYekPVKRPuGGzTcPEpo3fU2pM1QIAOZMz299JVxdeYMwM4Lzi\nh2VSyVi1AgMBAAECggEAEkhC7wgGQdJ91W91TMfay03D6IjArptVoYh2QgM5ZKTa\nTgmRs2bGYlPmjEdkLClpBaT547QOaYKjyAPh3RBA91jSpSVw4IXra7PJQsJgeIjD\nOuxocjHVIijETuHpyFxD+RLt57TQjpxpny5UKUrTlL8JKwe7xtyJMpjzqXvGv5de\n4EcW6vZ2PrFXsM4QRqe6QpQI1q2oW3GmfOK5D1prugfC5/KWvIuL6J1PBzO+Hx+Q\nMpZiCLG1oduHgOW4fk3us1LtsfeaADgLvZyA1GC7R4f280xu3g66IvdbBqI+RrOI\nfwggcqJXKMBj/Fzy84TBjuuhAyvVALOmO6kUYksI0QKBgQDFPyHx0Kj7+u5VrxnM\n0y1BKsi/S6DyjamHNFBFtRIvT7JAM0kuJLzUYXR7d1iiUS+8dxQzJB8GjuoiVxOv\nN6BCm9k5fU1oTWvW74zHAy/nsWq+tt5HVbqjDz0u8U2QBHKEBmubBklNKSv9f54V\n8rRllUxrv+/xEt4LrcwVKuKZMQKBgQDD24esiesISw5YwTnWVc1oozbwRgzu+O/A\n/z0kL7xUwxPhRghRJylFF040uVKiIj4LhPdt4dRHQbkczys3p20Mt7xQAtSPCnIv\nW7zCT7dQP1tUVe0gxBk0jP44fJRubN6crEJM91amGpcfi8Hnj2ae2XIE1UyJSc5+\nQJhUBWNWxQKBgERsKAxIQ7ZVT4Ptn9eLkfE/NDAXvhclyR8bqJTlwQ8kaEMZB1O4\nbsCFpfCGb/quiw6niBxNdW3C+bk715o6g59XjL0CmG2MHdKLepw2oNGQm+TYbrb0\nKDAUQzcbgbppsIfX6k/2mErp81aWhHI8pRNv/PiLtmI8F0aZ3WeiXsShAoGAJXkM\nNVPR9y09Gngl079o5JtNuJz+fn58iMWM8i577w+/7vsSPkyq1cBGw0mt6L16d4PC\nP3DUx6lofH2avDQ5ZhSFYB2ag5+xBySbMeZEoYLtu24RR5Kda/OJ9E7Jq3MDCKDg\nso8kMfWmcm+v8tj5/myGJyyUTzQi4P8E5hZ90i0CgYEAxKE+lidRQQzs+dqaQkcX\nqW5jf1idWfyCmijg3pJXWcmOWQ1fftHCBs10HSz1SGo9Hg+LuBsEBpYCFfB5YFGx\n87NwYUldwVHKgx2ZzJqIPC4Li1wJtlQ2Uo4EyIWo9YXTg43iCdUzpFPc/EVqoTpZ\nSNXC6slsWeMQi2aEFVD+sAE=\n-----END PRIVATE KEY-----\n",
  "client_email": "mfc-extlnm148ex-bi9uhs-cks8zan@saif46d.iam.gserviceaccount.com",
  "client_id": "102223176460242842687",
  "auth_uri": "https://accounts.google.com/o/oauth2/auth",
  "token_uri": "https://oauth2.googleapis.com/token",
  "auth_provider_x509_cert_url": "https://www.googleapis.com/oauth2/v1/certs",
  "client_x509_cert_url": "https://www.googleapis.com/robot/v1/metadata/x509/mfc-extlnm148ex-bi9uhs-cks8zan%40saif46d.iam.gserviceaccount.com"
}
