{
  "type": "service_account",
  "project_id": "saif46d",
  "private_key_id": "7ce7b4ae57ea1985cb025258aeeecff2a46bfbc8",
  "private_key": "-----BEGIN PRIVATE KEY-----\nMIIEvQIBADANBgkqhkiG9w0BAQEFAASCBKcwggSjAgEAAoIBAQCmMenUTpCf7Ipd\nIMMKzGSn+jSWF19/lSQPsE5p6UUY3Sv4ogCatvA564lKNK6sctfytbhiZp8VCDJW\nbhVenM+atdH/y5KD7LAHh71vxpBRMcZLMy1DCY3IVdRFo5Lc1LSMg/rrQJN4b7Od\nMcNtVtxIzJXhpKNaTVd3A8ZUVtZaEsbGiTmXPWlhhW0hvKZkRf6Y1dSf7vBTkwhg\na+4c7UHdf0KJIk3LE2fNwY3OwufRK6Mg6TW75SeSFzY8ND306siElaGiKs2mdP+V\nPaqxgi3K6IiqgzDdBCt9wNXgMOuA73X8EXFLkVDx0ngZiPhx0zrfbhhJ8tN/z33j\nLa/wZtcHAgMBAAECggEAGLb/gPUWCNJSWTsQBkETDu/kdhWPvBdfv32Gi7WG8wWh\nDl55HIjr/JEMX56qAzco6g0gGHIOYkBPzA6e2u0S6nzzd8i8RyYhn10OTNsIhyqR\nxIkdyARZs1sgMCL9Kh3vo53U6Ls3swdZfJzz5QSvyZuzBlVHfZxWz3oeOliXk9lN\nY8oxM4baXKLB9y2mjzqRD6HCHm7xSrUF22hPSgC/RvDcMTWrg+Ff5SogaV06mcCj\nXls1/cAlq9YPbqNG7rsj8C357b5QvmHkZiUMDZqlwB12UEtocBRrwrN1DflvVxDu\n6zM98vezl+O2Odx8SKXZ5gozbEpIFJggbeg+WI0p8QKBgQDhR3DWtyGjyTf2o0mu\nwgvIyXTmLhPpy+CMTauK9+LFwjiY/kLtiIJfEMO/ChqmULHLU/5LIUW38U26g6NF\n7EZ9nXFn2d01Hs345q4fxdA02/hDtQ/XFExLJNhhMs5gxcEoDhEpmQj1PnUNRaO2\no7Ix+kTjcKLyJJuFWiRxX7voEwKBgQC829RUA/zv5gYobfagFp0tZjxfwaCdUBuJ\n4ORa43ojpZhttDiB/7gtmmxZ5IClWAti4qbSn4E+dNKku2JvSVy5I0utGk2Hzj3v\n1BW10vxTUzHfoFoq4mKQkhYCbhFyZQRvVopPahjQIKeXwX1kjZ0AYzA1JrPy08OS\nq5YHpVObvQKBgQCa6G4uJ0Vpg68I2OWM1wAVdHn+4cZtqPTiZXJFIAl+5PvYMFbD\nUXAcgMGpdwA2RxzK7RnafamcP8CsNWKrbTpXnFDkEYqrwV/u/GjVjkeKYYwIutOG\nmP2RWme0BqSlJLaanXmtuf7P7L++fZmCuHOLLEX8g3J4wTVz8DVJBISIowKBgEDH\n5v0qoQhpDpOvpHklSKTZ/Lub30wWvlt9GNdUUAEKPE7lEr0EylhaL/BlwPr2SHGS\n7UYyEFMsH1UCMbGaqIOY58xoyU9cH0K0rP3BcWvjjaf3iPZM0SJl+ca7mqBypiLK\nvIahDgHWMaaMaEaljMUlQNP6gp84pE0bLktRGmzBAoGABPTq1Zm3z+070ynwF3LK\noCoRa8PW/tzmMBoIJSirf61YEQPB41mvBfaPjjTXLFK8NfJyJ33uS3VuRPO3u+pV\naZQSfK62mMXOeGBa5C9WagFf6mqbBZ9WuGzmbbSXsDGVmaT5DaZI7swatvtgA+Uy\neinSko0v6WNmYlBfvf6IyKw=\n-----END PRIVATE KEY-----\n",
  "client_email": "mfc-ios0nfh4t-ihxjs3vhb3c83dbb@saif46d.iam.gserviceaccount.com",
  "client_id": "109991349904543113824",
  "auth_uri": "https://accounts.google.com/o/oauth2/auth",
  "token_uri": "https://oauth2.googleapis.com/token",
  "auth_provider_x509_cert_url": "https://www.googleapis.com/oauth2/v1/certs",
  "client_x509_cert_url": "https://www.googleapis.com/robot/v1/metadata/x509/mfc-ios0nfh4t-ihxjs3vhb3c83dbb%40saif46d.iam.gserviceaccount.com"
}
