{
  "type": "service_account",
  "project_id": "saif46d",
  "private_key_id": "440a94145503a37179accc40e63fc8c650f6b317",
  "private_key": "-----BEGIN PRIVATE KEY-----\nMIIEvQIBADANBgkqhkiG9w0BAQEFAASCBKcwggSjAgEAAoIBAQDHp23MpsW0wHUn\nqMlSSYM+2VoWptfy78P6CupQbhoPi66cif46Dz/0iZ1ZLCuZWgfJcrFe8piUIIPh\nKCzBQt8lrSHg9bgCVeZk9sOdG3fXBPkwbqdFfWwk2IPZpz4jg1X8TzIaqdnvtT6P\nm2YQR6sJiSkGBW/G+YxfCxMSH0w9JF7GZVejyd2KPz8F1WSTtyS+k55oB9MrTbUi\np4oD5qm56lfmUhfAiBENcXfoiQawaq/iSIoDFvekLiJ9BtDEYZ7JrJ5SYV9gp8Qv\nGIsuriLLBj0jCr342Um8Y0ww+XvQ7R4TTCg4NPXM6oyjw1dqDlbuZTIH2vnubHsk\nOoBz2lr/AgMBAAECggEAEVvLPhnZ4qdBCFuydUcS9CntnT6QU/zoqxq72JZaCbP5\nUH7m7aFZzCcS2Sfv+ntLZgZkyX6KKYbSMIdPrNXllN8CrQ5wGzPgvjJ+O3Ch8L3r\n9HwKaw5GksWIYSobSvcmSLOSBaNy4VZ+w/mc3Bl/E2srd+yNFV2pCLJrzA2QkVgq\nmbLHfU6sP4HAqqyxxs+9i8BQtdRp78ufpKzqSOB6E5FnpXlDMNzzv3SG0WiupKA+\nZsGValFMvvLBKVhIIg4y2gxP13r811rp7jAxtw/TGedLLIWE4Q0mxAWKyOhYKolq\nNHrYKOeJqMaq2xGKu1ZFtMtX1DHXcuFaaaBHxD0BEQKBgQD92Cf8MDrM90z8LEPx\n+Dbm55ilg2b9j/4RaGACjVLBZF+s+R39Y8wI7OhR8g8bIPOVVr/nCafly315zuZ+\nKZ2GJf/C/x1vFHPCJdhOEQUN3duA80IO3zB2+kg6WwDqu+uOqimjroJXZinJ96tV\npt/K3oWSHPvo0HT+4Yf4x5LgJQKBgQDJWXdC07KT73+B0d6GIN58CwNl4crOxKom\nXW7Xzcs3UM13T0kZdUI/0c85SOWQvzqVmlxUcc8T/em2bHdqq7vg6uD6bL9L73uQ\nxJhkU5hFdgABS1au/BhuyRnGhCa0WxzX1uRO/rQ1+XkpY73j5AYnpRPNlcrdgdnG\nWQpYvqpDUwKBgATZcEodEcKApvPaVKH2v/XBTuU6kWkeqxfiCpOB56bSKBHB4JTK\np0c0X2vRWACIrJ6ZvajIQnDdZlRBY53dZaj+aNhszz8kAOIgnvU+1f3h0yOvgf+O\nu/pJ5b9XpbjWRjW/gnQiDVNmHD5DgP5t5bCWd67G5vkXomSMInDaPzARAoGAcit5\ntXnmk33FFi6TeAihP0LbbWTHo9DeDh0Cofl+FmKJ7vIVKAtWQmvMjdXo3deg931s\nhzF1UweyAw+j8udoBBQK99S77+nebesb4h+IgzJytEks4NHvZLpBFFCQxcm4JCck\nlCpWsxg/fJmi7dq5Jrey7+rU+h8MBi0s8b9DOiMCgYEA+NlGtgS0OjUPavF45KgB\nWpJPzaVw1FE+F5Bvj4J1sM+wRaifzhsM3NrOHnaGDBIaVzOn6cS79KNNbiw0s0b3\negLlSr5TrBIUOkC+AQWF9RaQ123kW60ZfiN1RbRqbenN4yij9JzhZS/Quut4Wmg5\nsS79y4YMsroFxZ1pll1lJ7U=\n-----END PRIVATE KEY-----\n",
  "client_email": "mfc-vu25eh6lvxk5b01da707unwb2i@saif46d.iam.gserviceaccount.com",
  "client_id": "108770115024515525979",
  "auth_uri": "https://accounts.google.com/o/oauth2/auth",
  "token_uri": "https://oauth2.googleapis.com/token",
  "auth_provider_x509_cert_url": "https://www.googleapis.com/oauth2/v1/certs",
  "client_x509_cert_url": "https://www.googleapis.com/robot/v1/metadata/x509/mfc-vu25eh6lvxk5b01da707unwb2i%40saif46d.iam.gserviceaccount.com"
}
