{
  "type": "service_account",
  "project_id": "saif46d",
  "private_key_id": "25c1f6140dd026e8b4e419a0176b4d876cceb9f9",
  "private_key": "-----BEGIN PRIVATE KEY-----\nMIIEvAIBADANBgkqhkiG9w0BAQEFAASCBKYwggSiAgEAAoIBAQDMUEaGJ16Z/Xbb\n/PI5ica2KOsID/ehu1VsvjPej5gPShUpGMyCshiQQiKStmYEc/Cx3qlwgPH3lQe1\nh6NyMT/FrhilsWiuMQVp5MCiUHug60mY7hhsNRejrKOgEtQbfdhy1uqSsLlqolbB\nSpWRFjV5cN48cyTzaS0NCPhXETCLt0UKBDV7hrsfZ9Lk8/rMP7ZpKznmpy6hgMze\nrYlyWJc+Gov5Tx60GC+YkJVOhpgHh2zt5tybeHpHZ07URv++T58TQzw5g/BWaOdm\nHLRHkHeRSvu8QptqkvuS4JwzLN3XxbH/1dVtZxgdgu4HxKGxvYo7dzJdjIsUElcL\n+2aW7Oe/AgMBAAECggEAAQGYmw3vt18JGTCY9bwNJC+G8ACYIR8mXriROKFJA6qH\ngSZpJl73LHiTLeG69EtCjQsKuVJr63PM4RYHOliDah/a8a/UW7gQSYdS+/NDUr3/\ngo+J5fyp4rUtH6gyv7HprAVAexl3pix++I1VDQroqJQnsWAOVTtceYoPVj/FdQCO\nPwPegq5YkkCLdDLM0vQGQUGYvKNC8FVl7qY7LQe47pVzn2/kqpAWqEGtBqCmCE/c\n80CecCdzXvqfRrTBKwx6CwgDVOvSYmvamblQq55+ktEzFYoau+QetYQYXUaUOsaE\n0wHtQ5zz+YVw8Y+V8a8LN1ft/+8qOBdOc0o+VGu+VQKBgQDmIETp2SLiNU53miL2\nYQTgkNVVlmRx1/RV7Ai4Jbkqp5jqDxwWq03DWjz31xFmHEQPigCC5t2JwS1yLDGr\n4zC2ixIR1CaG0mC5lA+tWA/feT0S0nYAW0y2PwxPn7BLl9UL9nlEjJMJtTPsT/zN\nrOgjzLkU/TsUnyHRxtDDHp7R8wKBgQDjSQtdLQNVTqFgM7F1c8ikjajweWZQtloM\nQkcnYs4/5xODOqoGzNaslaAWhh/v/L4DwLjU4CGYYfVX8QBotoVxFA7TTucmbz9k\nEAkr8rqvN9PuFzPXUMxWluY9XvI3cdEU7GXXfTj0Jf1C9yfmeG42Wg7gEYjIIe4b\nu23UF2d6BQKBgAT2KyYzlUn1RkTT4O8Y9mb1GHRo8q91rYHwvdtijNR7mpNpUfy3\nIs0Uc/4P+AMQlvMS0aIA4kPnE1jD1SpUkqdM5k3WGiKMBKPbql7daDI0RfnS6dJm\nJYhEYbqRwdZPZruES+cLdNwfuQfeTaANm0+ySUdHkm+GYs9IDxY14cy7AoGAWdtp\nCL9hD/r0Rgpp4FuUOapf3iLA1qwhUbNqWiHwFMeQqVMqIWIehUDqd70zJzgvD2DE\nMjUiUxJ3Yvs/BCcU/q3FZrlNHZ7h2veUCLIAKIHT4c9+iWPCRYGHKUA+VrlCxhjn\n8pfpSm0ygaUhOzblq8tTEjcccrMnZgNl2nIeUNkCgYBmhQtVjI4aOw/thS1+Wn2X\nbXTKMLj+EExx+lUeoGN8jTTj7erBk7AyiZZdtmAkkiieguRdkTyNJwvwKey07o3n\nuJLDOCZXwuzSR6fsy6XPVfwn1hImQazktsV3VRnigagjfofSuB71GTtbQeqnkp54\nHid+O0igKMLdNWwuo75PaA==\n-----END PRIVATE KEY-----\n",
  "client_email": "mfc--apzstrix1evevjw3-9dfdvanh@saif46d.iam.gserviceaccount.com",
  "client_id": "106281969138628598856",
  "auth_uri": "https://accounts.google.com/o/oauth2/auth",
  "token_uri": "https://oauth2.googleapis.com/token",
  "auth_provider_x509_cert_url": "https://www.googleapis.com/oauth2/v1/certs",
  "client_x509_cert_url": "https://www.googleapis.com/robot/v1/metadata/x509/mfc--apzstrix1evevjw3-9dfdvanh%40saif46d.iam.gserviceaccount.com"
}
