{
  "type": "service_account",
  "project_id": "saif46d",
  "private_key_id": "0d8754809610cb44beeacaf88760cf3d63cb30da",
  "private_key": "-----BEGIN PRIVATE KEY-----\nMIIEvgIBADANBgkqhkiG9w0BAQEFAASCBKgwggSkAgEAAoIBAQCzpew8SVPX7cV6\n3xMlbAIO4HJMIIabxbgnYLEBFrxG+QIazl4/vomLR4lNRQ9SoTyEjQHFm443oK8g\n2hHbEcE/CQx930mR3CMgle7rykHWaDwrXBtVYlkkTAri5AXDuAgqJ3uqYMzHocMH\ntvpEaO6nIkfTn0eIfTCV7zRAvP7tYBMZJ3Eo1GJfAq5EtX/0UT9kiK+YtEaiL+F4\nRgJ7lSmojwdpOGtnVbS1qp/X3Ai1uVdHZ/lD5cdit4cHKfYAiQyXCo5P743vTo+e\nStyEZ20/oryK8T0ZqhBB522wzHRDzxLta0vygHZXSCARDtL+1q8/SKomXhU26Ko2\ncW1HU60RAgMBAAECggEACrBvN4EXc4wqyW5Xicz87FyvgFcZG1Cu7ezja1CqgECV\nvvmTgxB3x6lIgqf+yuhcHPj054ijdCzj7rz6/gF28aS8sQqlqn+iOXCiaDY/J55J\nIj1XRQPWkQHTTf/KVgRvu+5gfdlHpgM6gw2Ao6xoston0vAxxe3JA8rZXZbBRmds\n05fWxmmZBkXi94VW83byrpjntBlV175AVqred+cAgZ1CgOYufOd7GZhs12TBBwYe\nyx5kFLNT+8pQH6/bfy/FFVsEnksMNHiPCJEbtFQgJ8cczj/fZUthMwe6DU8rbKlM\nR/a9LJlSaksZPLJl29vY5i825Ly+mRdH4SPODLw0iQKBgQDy3UZVzy5QWjujgwAz\nRHXqL/2BjdfGvxwtqckRJfWohTuSRv6rN1ct6W8POW0jB5fK5/C7L7G326nGfbNU\nmTrF/K6chcuX1d7i1dbIGVg32zLUSibC6zjvuT5GO1ttd/n3MUsnGfYMbEIXNObI\nsrF7ToNfRgPhrPUHYVUTEsrtZQKBgQC9XVmEPdJa5eUxM1PHdtjLsxPGzvQjHoQv\n9HxG/TpgokZJf8v1nthqsd9uGWNp6apXR5cRwnFl4bI1p9PXM0s8+iKRj1crAveA\n2vUQJ7bYcGaL9YMbVv7EI15XWQAxULmjSKWZpZjSp3gqBsEIWAwTNlGc8PxEjYmd\nOYJsv6DsPQKBgQCax0i3EUX78bXGfIuZIM1hRdpzQZm90Tg9JdK9ugp4rwiLLfHJ\n3ogR+45LDpcuVv13VCBIu5mwii8GEEBE7y7U1TfXCzH4f1YADLZIaladqnYXc3aG\njPCJXu6ARf37oxXMYz75GYOE4U2xioZ2a+POqPfytSVuIxM5898LO9PWPQKBgQCX\nVjtsTFwI+SIqJ/MUvg6U/REZGdxTFNhf2uxXb5lwEUBLDS9bpQ8gdfcybmfdBTl1\nd2lscBFgcveRmgbbPcsreFyYKA5p+X0EJfkkaBjg8TODNzsIZoZFCl8jP6W/w9wY\ner6eBJIWCHEoZS1wFa3QzOB8pLt3rgYE+Ska8CsToQKBgAhaxy3uBtAgg0gYgS7u\nx5psDONQZbl7UCioG0h6/Rhm1ZIKsa420hCMLHDEkwJorikeuiP/RDwBfvdJp0Gk\nm4M7WgeI2aQIY++YdXBSk2uLRRzH3AIqMgsXxQ75F+yEhUlrg+/erxnuz6lS52Mh\nBFXb6F6FKBYO013dk+pX7rte\n-----END PRIVATE KEY-----\n",
  "client_email": "mfc-llapxl2msx7pueognageht5nfa@saif46d.iam.gserviceaccount.com",
  "client_id": "102396782957273269018",
  "auth_uri": "https://accounts.google.com/o/oauth2/auth",
  "token_uri": "https://oauth2.googleapis.com/token",
  "auth_provider_x509_cert_url": "https://www.googleapis.com/oauth2/v1/certs",
  "client_x509_cert_url": "https://www.googleapis.com/robot/v1/metadata/x509/mfc-llapxl2msx7pueognageht5nfa%40saif46d.iam.gserviceaccount.com"
}
