{
  "type": "service_account",
  "project_id": "saif46d",
  "private_key_id": "449739b7969ae236d1c36fab2cb4984fe2b8ea3e",
  "private_key": "-----BEGIN PRIVATE KEY-----\nMIIEvQIBADANBgkqhkiG9w0BAQEFAASCBKcwggSjAgEAAoIBAQDPkTW8p3bQz1Qp\nKjHbpzjbkVDlXzoeFTm0mnAbxY8+skkN4jSHA9LE35xVM/zEXi/wxmSVHcyyhduX\nEnTVi5tB+dRdtlHbZmuAMOOD56wEjeeOcTAW2X2mhlyj/Ft8hRLwS6u4jP70AvhJ\nlXwp0odnJh6Ylc1taBsAKlP8B7yWTJBOjT7pFuOk/nd5JPZUXAJhVD/H4X4dhi7r\nQmX20gBLF+wx27w9AwpU77vVavZKCdfEUZ7ljzVooLS5UwkXjuBLb2giSNyd8sYf\ntlNC4K5DrViyGwoYOtAh2f40gSX25DB63I4VoMeyuqsdCiji3arZMhNzLk0KzZZ9\nRCQT1X+tAgMBAAECggEADU/7oZIfA3Tsqag4YuVWdvSaut9Q56mGVjA6hPl2freq\nCk8p/cfPvos16FwJd+GvkvJydILhBEkkBIwtPJ3z0vcuOOVu2hK3TdU03lqfNHqS\ncZcOVcTUs3e2HNlcV7/kL0+3H4LBfk5rdLK28Cq9vu6Zs0EWWBA/fRL56HXpkT0R\nqxxFu6AIsM2bk1Gw3qIqTNREdCFcEwqhPQs8na5Ilhn2rRrWmPv1boX1fMvZq/wq\nfMtxF2EhjEM0Gkes+ds9Eqe1c2ssSdMv5pITmyg1hQXONBvMUQLsU+9raqUXyapp\ntD/Gxc07Em+Z+eQ6mGRXXEvxx+jpEld5wSMN2WTVIQKBgQD8LdiMIgtH342wnv1d\nVWHCx333yICqUDXC/xoekNhPjYG6RBhAfNbaZxGDGGg6VBgEhEcUkPp3CTu8/xK2\njVYrrieP5lgUMtl2QG39I7uaLozcuniUUFx0umU3PgcwnC8qNwDrLwiZVE0QEyFc\n8i9Qq8DTJmwpbjE58qfEhGeH4QKBgQDStlK95iLuYkiprtmcuNADwwkLNIOjML6o\ngzv8u8ggsQG4uSAXvWXihQqi2aViNi3ZV9Q4RX5R2JC4mapMFP8MO6muuC4CsIhI\naSxmjUXVr6tdadEOolI1aGpi+59QCq490OaFldlfZxTTi0J3F38uVSJQMJP5W84C\nNkyWl2HBTQKBgBRBWnNnCKDtQ+Q74P3uLbwHagbNBAiqCKdw9hgeakF5jEH51jjX\nziocvTtaaoTE3GkAdvUf7/4/r5yuoEIpeBJqGqNkTQ7SRsVIx4zdoePweUABek3v\nZn25uweE4+7znJY3dMtvK7GlI8t2vedJTKOeKA7Nt0Jcp3eQFgmi2O4BAoGBAI9F\nWxM19NBj0YZWli5i10WHipGs3kjKrwiDWvlocRYRZNtGPNUHecxAq8+47yPNNPWQ\nK4MrdU2PVC/AhDOBHz4hHynmn5pCkBe0M3VzX2WBMaKtfXFW21DnM1ckQdm5uWnc\nrbFtB0VAIMAJ82JofphxWIhvz12Al52XcBIA0n4NAoGACmlB1I4W8hJyECMAqgv3\ng0x0+9vv4JQMIhtwBmALcykIjwxqdhtzFkuQnICPx++cOzU63wkLULww9+hdQshH\nOZTcorxvdsMRlQGeD1yLDe++S4f/4ayqHROniCUnDN/IK0VQpylGtI6cUfqy41Xz\noLf7LH1qPL6VXaRNO8th8RQ=\n-----END PRIVATE KEY-----\n",
  "client_email": "mfc-j261lcq-rhhs7m0-bsum2lx02b@saif46d.iam.gserviceaccount.com",
  "client_id": "105200252672201348022",
  "auth_uri": "https://accounts.google.com/o/oauth2/auth",
  "token_uri": "https://oauth2.googleapis.com/token",
  "auth_provider_x509_cert_url": "https://www.googleapis.com/oauth2/v1/certs",
  "client_x509_cert_url": "https://www.googleapis.com/robot/v1/metadata/x509/mfc-j261lcq-rhhs7m0-bsum2lx02b%40saif46d.iam.gserviceaccount.com"
}
