{
  "type": "service_account",
  "project_id": "saif46d",
  "private_key_id": "6a202b9e1bbf871f3be790ad26e872a276d6a2b6",
  "private_key": "-----BEGIN PRIVATE KEY-----\nMIIEvQIBADANBgkqhkiG9w0BAQEFAASCBKcwggSjAgEAAoIBAQCkVogjqHZRDJyn\ngqXpZMSpRkFcvxUqDVbYCEeP5RV09/t8zp9gmUOs7V3kaacKmphD3GW1bQObSiCu\nCYR5qFsqiSL8m1TnbBkcnuqAeuEDHa8Fi4dOfNirkA3EBrzc5tLCWTV31gFu7eb2\nXz6OeDdtjvQQauZzL+TFDjn6oWroLCVcZfhxmMQz59XP4rCZ19UTY0iuXJhC8xij\npN52qXcMaZM8Qpo8Y2/bFz289xcTtk3JY+9AUWohVfbClk/tDW+IbO3FtXYbkw9l\nsTKVfjGeL9zWlKdBw6LXTSOE2Caure4fFb0XH8pLCn/Aj/tV7+w0U3XYgVDx6+iQ\nnBoFotlVAgMBAAECggEAAP8P+ZIJOu87TpNZiNNg6IXR2ktuSBWnSSKuYbj0gFkL\nNUkraN0vroS3Olie9/l9TYFbPIEEsempI7pQYKHHVmKudkmazNcNmpbRZSYEPI3u\n2bcW2EBO2qYXmfCl2dEBxhvfBHL6Xz8h/1cPJ134jWQoe/up71jYUjmGhcvPZ3Oa\nk/AKLMXLDsyO7RAdPUEhrk9TrrYvwWGU/cdGS9QHSg3h2gGY4pj4jAq5hACNPjWs\nOrqtELykUEKRTBOmXnn40H616FFhjioHDFuBTIxt1RZm1amdMnfNpsbJ4ul7RgJR\notUdpPmSNkF53NUNlRwQ1YWjcyIoZAqMRhtFiBBuoQKBgQDUo6OHN00yOGYKd8FK\n2otRT2fIz7Vd0Ty1Xzm+Ws46YPjRiGj3KAfh8e/JX4UbAyZgesrfIkgQB2N6OXR2\nu9qwWsI+ZFJULFWAFwJbWztJYiJbwnJftABubcmUN8TUYWqhC0dGn4wjDnQ0trZa\naoVxqUnPsIyeyNOlL/z0v/c7BwKBgQDF2W94b5PXL0xHuPat4rYBjFpuO/IYXDu7\nTbJhHct7weFar+j0kJWpm3LoTKZxseeyocXdz58CwVNqgoI0mciuIDpRgn1qY3t9\nctYmOgHNfFTbPRRpARdQ0S06BHZsZt4pHTOGTSEQJ0/GHXK0JMUlVQq9tmIaaH1t\n6KVkaVhFwwKBgQDEb5N/M5BmB4IEw5LWUsSHTgLDmVakH8qkhx7yAjMn7TOPZiQJ\nx3pYucdZ0ZtGVAec83L85U+LNzgnznIPygUCDCYLu2PvDLHDzf3IZaSEa1rwR9af\nIMuROG0TNt3nkUMPGTs0O+oa7JxfojcdmfBDCy/75M5TVZVnschOVhTP+wKBgHyw\nf08gysTIG0PsbxLBmcE6ClgE0ZvGrSJrYitQkshpNTRpPuC7Kodc37tFa3SmEYcD\n62bSjb03x/GNVK//53jN+NMb8RyWm+JA+HPZBP/TBsuxH+bZeC9H1UAGRfglkIfK\nzokqnNbIX79VGdAsiE7x3LYZdpR8G+ijwXCZ77bvAoGAHdna69saYw0dACEiw/OR\nwqVtjFbtMFlEs0nLRQjgayJtJI6ifOxqy9/lTW/v1NoEppf7wV2tyLmoQh66p6pa\nnNXlQFczp1gI4OodJZk+oJEvtxxULoe4zrkUN0APvLPrXnGhrfMFSI6EgdQlgmOH\njOc2uqWotKSaCpasnWYcOGM=\n-----END PRIVATE KEY-----\n",
  "client_email": "mfc-w3rfai5xs6qvsvys5tqljlkb8q@saif46d.iam.gserviceaccount.com",
  "client_id": "108129083594949801723",
  "auth_uri": "https://accounts.google.com/o/oauth2/auth",
  "token_uri": "https://oauth2.googleapis.com/token",
  "auth_provider_x509_cert_url": "https://www.googleapis.com/oauth2/v1/certs",
  "client_x509_cert_url": "https://www.googleapis.com/robot/v1/metadata/x509/mfc-w3rfai5xs6qvsvys5tqljlkb8q%40saif46d.iam.gserviceaccount.com"
}
