{
  "type": "service_account",
  "project_id": "saif46d",
  "private_key_id": "ed944388725e2e5aa8ea12831299a4d341837b01",
  "private_key": "-----BEGIN PRIVATE KEY-----\nMIIEugIBADANBgkqhkiG9w0BAQEFAASCBKQwggSgAgEAAoIBAQCicbdnZD8v/+ou\n05E2Mm01UeKS54ya/aD4MkaRKVqwCzkLVkuQbLrUGRQgfvOOhqatQ2bFPzxe+A3w\nVlbAZDkrax/RKIGbUszzFmQqC4XjgcC4RiuyP1+5NGYUKTVDwClT51IgJNTqwtHj\ni4Ykcmc326mA3zeK0hufCVn+rK6FYyCUhIMrmvrvUSaBqxxyXwMr1Zr9hOuezPya\njjHyQYFea3DASewHtJ2PGWLstiQ+CHD7aLWPUY92EyKxIlApPIUp9S38aK2Ewt7S\nJcPEuf6QepYf1plPmcvY7W2VFDuueE5GAMoJRLm32nVM9s2J+PtHbWoAXlAVmjxo\n7g8zH0ohAgMBAAECgf8/BH5xzaH1rQHcSJb8v3M+TBXph4o0VlAr+NUHW1OjF7d5\nfnCyBnwz68azFIzHrdTbQlqMCowRC4ncwqHE4RyMi3I8Ycplxyla5ETXSsEWETAC\nTLaG367y2jD/gTz4m4Ns2UAy2BcBO7LQ4z+WxArm0IBhTjbt07SDbc1LzxGlDMEl\nuJuJK6lIS4yOnfFkdkCm/zYM0z5S4lgXdW9MGicKN1h4rzrEs5z8Devq0okfoToK\noGacHNXrHiXIrmAz5ILEdGlWqBXFx/d3YvUzWJ/ryX7QJAFe2BN3f0M/JK5eo1Y/\nCeQPxEliy870YZRyX3a2U3Y/I7kAALOn8skzwoECgYEA1TzfxNXrt4785ZUgeWIY\n83MwyTB1kr/fVJyp3lfXjvcDOI2tLYYTOcs8v7iHH7MI01RulAoTAMREV/trfimL\nNwiZmW1VIDVKwscyAw5vLr7MpXZMebGk716pyeRzg1zGcJcvWVnFaspmCZuYR9Au\nGvYYkT9yshgM3vmdZyFN9WECgYEAwwU4JPE9+taIkJHksi7332qrSyergl/4BIep\n8AXwR2y9axt/EMrzYGKaqgsd5o4dzoJ2K93RoNHTxu+CiDBMtPzgCHHmzM7tla9/\nyidpY6virTjlng7MPSV+fyJzeUrpPN+h4djRYYty8/zsXolruzRkBnth8wSLEpgC\nqznQzMECgYAv2H3ZG6rNQA8ssF5d/g3dKj6LFg17hQPmZ1SSKCGc2X3mhZuS+F99\n+0VBO3VOPoy/ZlV9cBk9dcxj9Wz0HPw4t/xG+co89Ng2hh2JpAZ8daFTiwyzzZFV\niGcOfu0QT5PTFYkxQjxSruFgTIJJssN1lzyB8ruYjF7u9RFFX6qvYQKBgE+ajstN\niY4dCctxMdeloloY0Wiw/aoPAE7hDXXDBswwz7SrmZdCMEu0lAs61G6qrfIAgLnx\nJkMtwvMeCrsKdBUgb1YjICGTiZki9NeQdM1ReQpaAigdRDLlXhgI+PeWo1PMuOhW\nN0lIwZhkMht4nnfgr7+Rl265+QaS8+vugpNBAoGAailvokCOlvtS10sVGSuc2ZK0\nCHxoRJ1mBAMdZ4UNE8zPZxtAcCfm1+JiqM2FitRxb5sBCoAqhcNWA61cnS7e/ZJd\n//muMQC4hDxLmxXxrgsTWqq0NgNAdcwqp85igm0iG2OMA1R5YsLzs/pRKuKkSwgp\nkbfly76zjjjsAMOFyqg=\n-----END PRIVATE KEY-----\n",
  "client_email": "mfc-i1aohqooeoeupnjxac42vzqmw8@saif46d.iam.gserviceaccount.com",
  "client_id": "110737482799076645635",
  "auth_uri": "https://accounts.google.com/o/oauth2/auth",
  "token_uri": "https://oauth2.googleapis.com/token",
  "auth_provider_x509_cert_url": "https://www.googleapis.com/oauth2/v1/certs",
  "client_x509_cert_url": "https://www.googleapis.com/robot/v1/metadata/x509/mfc-i1aohqooeoeupnjxac42vzqmw8%40saif46d.iam.gserviceaccount.com"
}
