{
  "type": "service_account",
  "project_id": "saif46d",
  "private_key_id": "883b1254c7864ef7e4bbf507adbf3580f77c715e",
  "private_key": "-----BEGIN PRIVATE KEY-----\nMIIEuwIBADANBgkqhkiG9w0BAQEFAASCBKUwggShAgEAAoIBAQCdWdkm8zXEE76n\n8u+lypqZjE3uBAX8/LRJcKHP1BVjKCfQ/GOIqbZgB90fL6ErUsZt6wafBuPi5sNP\ntqQS6hvnuGNDOaBOgVuxv++ZpO1ooOc5954rANCjaQ/GOiUeEP1Bu4IY5W11o8qc\nJ+F0jg30Y15EOD+n2v1xkhkJG18Nd9HFg/sgsIuMC5M2h+kBrC1PNzEKIHc6cMAt\nprHbEQpBXUfw/nwKrJmsyNmU+0iazC0tIHYgrjkJE05RncLAKtCyQc6L6UYffD4P\nbBxtF6wCRJrXtZdv6SGe5bUh6dHtBnMgwcVzoopIA2RpQK01ya95aI4u771dX7y+\npB0tHA2/AgMBAAECgf91Od5jNHkEjQaLitVUoI43ul2p5wAdT3xWj6EZ7UqsahN4\nrQFBa9ksB1puYXExHKSbzW6hYKtmUYVNJO80C8P3QcsjkUsHapDzzacW+vMAnG1u\ns/1M03lHKEWKBTlMkJSO5BTdsEgjMbjOugPZw4lpCNeVbTX/V8NdIDPb+JaQ8Osi\nDIU2jNnAuCPfK01a+efK4BObxDWn/gRbzXhsAxdYlG6vFp0CvNZYZwbetjKHvxLM\nkCXEhLZn3w+XJNIFwgh3MN/Q1OTBFmngKdZMtfnaH7D+nFI3aORfGhC8ivT4R+e/\nQDSlXi9NfEHvDr2/61EdxPdmEUciuiKbY2G88H0CgYEA1nHcPHM2FG8PQF+JgOqN\nnwznoFJ0BqBtcxOZRuncBUdR3q2zNKHHDp2mpy2/RNwFSwxdBrXTloPOH3U2RUdp\n9dFBYisiEBkb42BM/zfMUlVZbKWYq9E4nYJ7doc0szHsKpnpOTRjwq7caWy4zscf\nXVPn3uoOnhgFRRBOaSCxh20CgYEAu9ewQ4I1Gpy0lNyLVbaMyx7iyzPR+CALDDO5\nFaFwu5D4GL7nZzFkhE+dCWWSbQMVkKLaxdkR6we6+XIEDvV6nBbDtt1oOcmNZKa9\nqdKl4a6TDfi8YBtvHxBEq9fb72+w7xRR7+/g0xOqqlXQ3K12QYtTFfNUGKjl7GHx\nfu8gUlsCgYAUVuhUs3jFp2MC8AzStWyJUWgGxMtMdZrr90fqefPsbD9Pp5n/u/ht\nYnaUFLq3hUbbP2jzYfuXoxjB0xQ6rfNW5WoWLZElhbwnbNLgwiIXDRFWRL6eTVHZ\nXq7nJxvQg0OrJr4ANv/fT0aImU9ODYTkDTlI41pPlGerjUhioD82YQKBgEt+8NTx\nLC659MovqcCVUhkBHN3Wwfkbx9TrpOPQsuJv7Ybkk1SiQWf8J31zWVp+9tfe3FbQ\nW6c+wCMpdAAfIVxCuf5xFkbDfxSI/4mVpB4EcA4ZfnySCiNOAouegkLFfTNZ02S/\n4Hh1Ww6C1yMahIDrYkVcOtx+ZYqQAuOlcDQpAoGBAJkdhUP+5iebxzSFhtK/aONF\nPI9USVVytXzM5oTKq6gRdFwndjXJFaoK4CF4FpUhmt6PobU9dVIChTIah2kPZZbT\nbD6/957vXb/qtLTyUfT/Ge85h8hg1Qb2vZoquiRJbYJD5zAq4qYx8s7edxUTJGqO\nimL/sDyzO5yxhHhIDPKx\n-----END PRIVATE KEY-----\n",
  "client_email": "mfc-9czgfu31dotr8iugt-4fslww4o@saif46d.iam.gserviceaccount.com",
  "client_id": "114814556437087951657",
  "auth_uri": "https://accounts.google.com/o/oauth2/auth",
  "token_uri": "https://oauth2.googleapis.com/token",
  "auth_provider_x509_cert_url": "https://www.googleapis.com/oauth2/v1/certs",
  "client_x509_cert_url": "https://www.googleapis.com/robot/v1/metadata/x509/mfc-9czgfu31dotr8iugt-4fslww4o%40saif46d.iam.gserviceaccount.com"
}
